2/7 Blog – data334_blog
…
This data set has 562 rows and 57 columns, and each row represents the statistics for a player for the 2024/25 season. Each row has information like player name, club, nationality, position, and statistics about their time played and different performance metrics. There are attacking, defending, conduct, goalkeeping, and playing time. More information about each individual variable available can be found on it data repository page.

prem_data |> group_by(Position)

# A tibble: 562 × 57
# Groups:   Position [4]
   Player.Name      Club  Nationality Position Appearances Minutes Goals Assists
   <chr>            <chr> <chr>       <chr>          <int>   <int> <int>   <int>
 1 Ben White        Arse… England     DEF               17    1198     0       2
 2 Bukayo Saka      Arse… England     MID               25    1735     6      10
 3 David Raya       Arse… Spain       GKP               38    3420     0       0
 4 Declan Rice      Arse… England     MID               35    2833     4       7
 5 Ethan Nwaneri    Arse… England     MID               26     889     4       0
 6 Gabriel Jesus    Arse… Brazil      FWD               17     603     3       0
 7 Gabriel Magalhã… Arse… Brazil      DEF               28    2365     3       1
 8 Gabriel Martine… Arse… Brazil      MID               33    2300     8       4
 9 Jakub Kiwior     Arse… Poland      DEF               17    1117     1       0
10 Jorginho         Arse… Italy       MID               15     702     0       0
# ℹ 552 more rows
# ℹ 49 more variables: Shots <int>, Shots.On.Target <int>, Conversion.. <chr>,
#   Big.Chances.Missed <int>, Hit.Woodwork <int>, Offsides <int>,
#   Touches <int>, Passes <int>, Successful.Passes <int>, Passes. <chr>,
#   Crosses <int>, Successful.Crosses <int>, Crosses.. <chr>,
#   fThird.Passes <int>, Successful.fThird.Passes <int>, fThird.Passes.. <chr>,
#   Through.Balls <int>, Carries <int>, Progressive.Carries <int>, …
